{
  "Resources": {
    "tpciCustomDomain21DD44B6Stage": {
      "Type": "AWS::ApiGateway::DomainName",
      "Properties": {
        "CertificateArn": "arn:aws:acm:us-east-1:053655145506:certificate/6aecdba4-a727-4f1c-b557-96d42a817551",
        "DomainName": "customdomain.stage.api.pokemoncenter.com",
        "EndpointConfiguration": {
          "Types": [
            "EDGE"
          ]
        },
        "SecurityPolicy": "TLS_1_2",
        "Tags": [
          {
            "Key": "cdk-version",
            "Value": "1.110.1"
          },
          {
            "Key": "cicd",
            "Value": "true"
          },
          {
            "Key": "managed-by",
            "Value": "cdk"
          },
          {
            "Key": "organization",
            "Value": "tpci"
          },
          {
            "Key": "project",
            "Value": "cela"
          },
          {
            "Key": "repository",
            "Value": "tpci-aws-cdk"
          },
          {
            "Key": "repository-owner",
            "Value": "slalomtpci"
          },
          {
            "Key": "stack-version",
            "Value": "1.18.2"
          },
          {
            "Key": "stage",
            "Value": "stage"
          }
        ]
      },
      "Metadata": {
        "aws:cdk:path": "tpci-aws-cdk-api-domain-stage/CustomDomain/Resource"
      }
    },
    "tpciARecordE7B57761Stage": {
      "Type": "AWS::Route53::RecordSet",
      "Properties": {
        "Name": "customdomain.stage.api.pokemoncenter.com.",
        "Type": "A",
        "AliasTarget": {
          "DNSName": {
            "Fn::GetAtt": [
              "tpciCustomDomain21DD44B6Stage",
              "DistributionDomainName"
            ]
          },
          "HostedZoneId": {
            "Fn::GetAtt": [
              "tpciCustomDomain21DD44B6Stage",
              "DistributionHostedZoneId"
            ]
          }
        },
        "HostedZoneId": "Z1Z4ESZN0XVVHC"
      },
      "Metadata": {
        "aws:cdk:path": "tpci-aws-cdk-api-domain-stage/ARecord/Resource"
      }
    }
  }
}