{
  "Resources": {
    "tpciBucket83908E77Stage": {
      "Type": "AWS::S3::Bucket",
      "Properties": {
        "BucketName": "tpci-damroot-stage",
        "PublicAccessBlockConfiguration": {
          "BlockPublicAcls": true,
          "BlockPublicPolicy": true,
          "IgnorePublicAcls": true,
          "RestrictPublicBuckets": true
        },
        "Tags": [
          {
            "Key": "cdk-version",
            "Value": "1.110.1"
          },
          {
            "Key": "cicd",
            "Value": "true"
          },
          {
            "Key": "managed-by",
            "Value": "cdk"
          },
          {
            "Key": "organization",
            "Value": "tpci"
          },
          {
            "Key": "project",
            "Value": "cela"
          },
          {
            "Key": "repository",
            "Value": "tpci-aws-cdk"
          },
          {
            "Key": "repository-owner",
            "Value": "slalomtpci"
          },
          {
            "Key": "stack-version",
            "Value": "1.18.2"
          },
          {
            "Key": "stage",
            "Value": "stage"
          }
        ]
      },
      "UpdateReplacePolicy": "Retain",
      "DeletionPolicy": "Retain",
      "Metadata": {
        "aws:cdk:path": "tpci-aws-cdk-damroot-s3-stage/Bucket/Resource"
      }
    }
  }
}